%!PS-Adobe-3.0 EPSF-3.0
%%Creator: (MATLAB, The Mathworks, Inc. Version 9.5.0.944444 \(R2018b\). Operating System: Mac OS X)
%%Title: /Users/apple/kite_bvp_solver/matlab/train.eps
%%CreationDate: 2019-04-29T23:00:49
%%Pages: (atend)
%%BoundingBox: 0 0 1274 229
%%LanguageLevel: 3
%%EndComments
%%BeginProlog
%%BeginResource: procset (Apache XML Graphics Std ProcSet) 1.2 0
%%Version: 1.2 0
%%Copyright: (Copyright 2001-2003,2010 The Apache Software Foundation. License terms: http://www.apache.org/licenses/LICENSE-2.0)
/bd{bind def}bind def
/ld{load def}bd
/GR/grestore ld
/GS/gsave ld
/RM/rmoveto ld
/C/curveto ld
/t/show ld
/L/lineto ld
/ML/setmiterlimit ld
/CT/concat ld
/f/fill ld
/N/newpath ld
/S/stroke ld
/CC/setcmykcolor ld
/A/ashow ld
/cp/closepath ld
/RC/setrgbcolor ld
/LJ/setlinejoin ld
/GC/setgray ld
/LW/setlinewidth ld
/M/moveto ld
/re {4 2 roll M
1 index 0 rlineto
0 exch rlineto
neg 0 rlineto
cp } bd
/_ctm matrix def
/_tm matrix def
/BT { _ctm currentmatrix pop matrix _tm copy pop 0 0 moveto } bd
/ET { _ctm setmatrix } bd
/iTm { _ctm setmatrix _tm concat } bd
/Tm { _tm astore pop iTm 0 0 moveto } bd
/ux 0.0 def
/uy 0.0 def
/F {
  /Tp exch def
  /Tf exch def
  Tf findfont Tp scalefont setfont
  /cf Tf def  /cs Tp def
} bd
/ULS {currentpoint /uy exch def /ux exch def} bd
/ULE {
  /Tcx currentpoint pop def
  gsave
  newpath
  cf findfont cs scalefont dup
  /FontMatrix get 0 get /Ts exch def /FontInfo get dup
  /UnderlinePosition get Ts mul /To exch def
  /UnderlineThickness get Ts mul /Tt exch def
  ux uy To add moveto  Tcx uy To add lineto
  Tt setlinewidth stroke
  grestore
} bd
/OLE {
  /Tcx currentpoint pop def
  gsave
  newpath
  cf findfont cs scalefont dup
  /FontMatrix get 0 get /Ts exch def /FontInfo get dup
  /UnderlinePosition get Ts mul /To exch def
  /UnderlineThickness get Ts mul /Tt exch def
  ux uy To add cs add moveto Tcx uy To add cs add lineto
  Tt setlinewidth stroke
  grestore
} bd
/SOE {
  /Tcx currentpoint pop def
  gsave
  newpath
  cf findfont cs scalefont dup
  /FontMatrix get 0 get /Ts exch def /FontInfo get dup
  /UnderlinePosition get Ts mul /To exch def
  /UnderlineThickness get Ts mul /Tt exch def
  ux uy To add cs 10 mul 26 idiv add moveto Tcx uy To add cs 10 mul 26 idiv add lineto
  Tt setlinewidth stroke
  grestore
} bd
/QT {
/Y22 exch store
/X22 exch store
/Y21 exch store
/X21 exch store
currentpoint
/Y21 load 2 mul add 3 div exch
/X21 load 2 mul add 3 div exch
/X21 load 2 mul /X22 load add 3 div
/Y21 load 2 mul /Y22 load add 3 div
/X22 load /Y22 load curveto
} bd
/SSPD {
dup length /d exch dict def
{
/v exch def
/k exch def
currentpagedevice k known {
/cpdv currentpagedevice k get def
v cpdv ne {
/upd false def
/nullv v type /nulltype eq def
/nullcpdv cpdv type /nulltype eq def
nullv nullcpdv or
{
/upd true def
} {
/sametype v type cpdv type eq def
sametype {
v type /arraytype eq {
/vlen v length def
/cpdvlen cpdv length def
vlen cpdvlen eq {
0 1 vlen 1 sub {
/i exch def
/obj v i get def
/cpdobj cpdv i get def
obj cpdobj ne {
/upd true def
exit
} if
} for
} {
/upd true def
} ifelse
} {
v type /dicttype eq {
v {
/dv exch def
/dk exch def
/cpddv cpdv dk get def
dv cpddv ne {
/upd true def
exit
} if
} forall
} {
/upd true def
} ifelse
} ifelse
} if
} ifelse
upd true eq {
d k v put
} if
} if
} if
} forall
d length 0 gt {
d setpagedevice
} if
} bd
/RE { % /NewFontName [NewEncodingArray] /FontName RE -
  findfont dup length dict begin
  {
    1 index /FID ne
    {def} {pop pop} ifelse
  } forall
  /Encoding exch def
  /FontName 1 index def
  currentdict definefont pop
  end
} bind def
%%EndResource
%%BeginResource: procset (Apache XML Graphics EPS ProcSet) 1.0 0
%%Version: 1.0 0
%%Copyright: (Copyright 2002-2003 The Apache Software Foundation. License terms: http://www.apache.org/licenses/LICENSE-2.0)
/BeginEPSF { %def
/b4_Inc_state save def         % Save state for cleanup
/dict_count countdictstack def % Count objects on dict stack
/op_count count 1 sub def      % Count objects on operand stack
userdict begin                 % Push userdict on dict stack
/showpage { } def              % Redefine showpage, { } = null proc
0 setgray 0 setlinecap         % Prepare graphics state
1 setlinewidth 0 setlinejoin
10 setmiterlimit [ ] 0 setdash newpath
/languagelevel where           % If level not equal to 1 then
{pop languagelevel             % set strokeadjust and
1 ne                           % overprint to their defaults.
{false setstrokeadjust false setoverprint
} if
} if
} bd
/EndEPSF { %def
count op_count sub {pop} repeat            % Clean up stacks
countdictstack dict_count sub {end} repeat
b4_Inc_state restore
} bd
%%EndResource
%FOPBeginFontDict
%%IncludeResource: font Courier-Oblique
%%IncludeResource: font Courier-BoldOblique
%%IncludeResource: font Courier-Bold
%%IncludeResource: font ZapfDingbats
%%IncludeResource: font Symbol
%%IncludeResource: font Helvetica
%%IncludeResource: font Helvetica-Oblique
%%IncludeResource: font Helvetica-Bold
%%IncludeResource: font Helvetica-BoldOblique
%%IncludeResource: font Times-Roman
%%IncludeResource: font Times-Italic
%%IncludeResource: font Times-Bold
%%IncludeResource: font Times-BoldItalic
%%IncludeResource: font Courier
%FOPEndFontDict
%%BeginResource: encoding WinAnsiEncoding
/WinAnsiEncoding [
/.notdef /.notdef /.notdef /.notdef /.notdef
/.notdef /.notdef /.notdef /.notdef /.notdef
/.notdef /.notdef /.notdef /.notdef /.notdef
/.notdef /.notdef /.notdef /.notdef /.notdef
/.notdef /.notdef /.notdef /.notdef /.notdef
/.notdef /.notdef /.notdef /.notdef /.notdef
/.notdef /.notdef /space /exclam /quotedbl
/numbersign /dollar /percent /ampersand /quotesingle
/parenleft /parenright /asterisk /plus /comma
/hyphen /period /slash /zero /one
/two /three /four /five /six
/seven /eight /nine /colon /semicolon
/less /equal /greater /question /at
/A /B /C /D /E
/F /G /H /I /J
/K /L /M /N /O
/P /Q /R /S /T
/U /V /W /X /Y
/Z /bracketleft /backslash /bracketright /asciicircum
/underscore /quoteleft /a /b /c
/d /e /f /g /h
/i /j /k /l /m
/n /o /p /q /r
/s /t /u /v /w
/x /y /z /braceleft /bar
/braceright /asciitilde /bullet /Euro /bullet
/quotesinglbase /florin /quotedblbase /ellipsis /dagger
/daggerdbl /circumflex /perthousand /Scaron /guilsinglleft
/OE /bullet /Zcaron /bullet /bullet
/quoteleft /quoteright /quotedblleft /quotedblright /bullet
/endash /emdash /asciitilde /trademark /scaron
/guilsinglright /oe /bullet /zcaron /Ydieresis
/space /exclamdown /cent /sterling /currency
/yen /brokenbar /section /dieresis /copyright
/ordfeminine /guillemotleft /logicalnot /sfthyphen /registered
/macron /degree /plusminus /twosuperior /threesuperior
/acute /mu /paragraph /middot /cedilla
/onesuperior /ordmasculine /guillemotright /onequarter /onehalf
/threequarters /questiondown /Agrave /Aacute /Acircumflex
/Atilde /Adieresis /Aring /AE /Ccedilla
/Egrave /Eacute /Ecircumflex /Edieresis /Igrave
/Iacute /Icircumflex /Idieresis /Eth /Ntilde
/Ograve /Oacute /Ocircumflex /Otilde /Odieresis
/multiply /Oslash /Ugrave /Uacute /Ucircumflex
/Udieresis /Yacute /Thorn /germandbls /agrave
/aacute /acircumflex /atilde /adieresis /aring
/ae /ccedilla /egrave /eacute /ecircumflex
/edieresis /igrave /iacute /icircumflex /idieresis
/eth /ntilde /ograve /oacute /ocircumflex
/otilde /odieresis /divide /oslash /ugrave
/uacute /ucircumflex /udieresis /yacute /thorn
/ydieresis
] def
%%EndResource
%FOPBeginFontReencode
/Courier-Oblique findfont
dup length dict begin
  {1 index /FID ne {def} {pop pop} ifelse} forall
  /Encoding WinAnsiEncoding def
  currentdict
end
/Courier-Oblique exch definefont pop
/Courier-BoldOblique findfont
dup length dict begin
  {1 index /FID ne {def} {pop pop} ifelse} forall
  /Encoding WinAnsiEncoding def
  currentdict
end
/Courier-BoldOblique exch definefont pop
/Courier-Bold findfont
dup length dict begin
  {1 index /FID ne {def} {pop pop} ifelse} forall
  /Encoding WinAnsiEncoding def
  currentdict
end
/Courier-Bold exch definefont pop
/Helvetica findfont
dup length dict begin
  {1 index /FID ne {def} {pop pop} ifelse} forall
  /Encoding WinAnsiEncoding def
  currentdict
end
/Helvetica exch definefont pop
/Helvetica-Oblique findfont
dup length dict begin
  {1 index /FID ne {def} {pop pop} ifelse} forall
  /Encoding WinAnsiEncoding def
  currentdict
end
/Helvetica-Oblique exch definefont pop
/Helvetica-Bold findfont
dup length dict begin
  {1 index /FID ne {def} {pop pop} ifelse} forall
  /Encoding WinAnsiEncoding def
  currentdict
end
/Helvetica-Bold exch definefont pop
/Helvetica-BoldOblique findfont
dup length dict begin
  {1 index /FID ne {def} {pop pop} ifelse} forall
  /Encoding WinAnsiEncoding def
  currentdict
end
/Helvetica-BoldOblique exch definefont pop
/Times-Roman findfont
dup length dict begin
  {1 index /FID ne {def} {pop pop} ifelse} forall
  /Encoding WinAnsiEncoding def
  currentdict
end
/Times-Roman exch definefont pop
/Times-Italic findfont
dup length dict begin
  {1 index /FID ne {def} {pop pop} ifelse} forall
  /Encoding WinAnsiEncoding def
  currentdict
end
/Times-Italic exch definefont pop
/Times-Bold findfont
dup length dict begin
  {1 index /FID ne {def} {pop pop} ifelse} forall
  /Encoding WinAnsiEncoding def
  currentdict
end
/Times-Bold exch definefont pop
/Times-BoldItalic findfont
dup length dict begin
  {1 index /FID ne {def} {pop pop} ifelse} forall
  /Encoding WinAnsiEncoding def
  currentdict
end
/Times-BoldItalic exch definefont pop
/Courier findfont
dup length dict begin
  {1 index /FID ne {def} {pop pop} ifelse} forall
  /Encoding WinAnsiEncoding def
  currentdict
end
/Courier exch definefont pop
%FOPEndFontReencode
%%EndProlog
%%Page: 1 1
%%PageBoundingBox: 0 0 1274 229
%%BeginPageSetup
[1 0 0 -1 0 229] CT
%%EndPageSetup
GS
1 GC
N
0 0 1274 229 re
f
GR
GS
1 GC
N
0 0 1274 229 re
f
GR
GS
1 GC
N
165.5 199 M
1153 199 L
1153 17 L
165.5 17 L
cp
f
GR
GS
0.873 GC
1 LJ
0.5 LW
N
165.5 199 M
165.5 17 L
S
GR
GS
0.873 GC
1 LJ
0.5 LW
N
659.25 199 M
659.25 17 L
S
GR
GS
0.873 GC
1 LJ
0.5 LW
N
1153 199 M
1153 17 L
S
GR
GS
0.873 GC
1 LJ
0.5 LW
N
1153 199 M
165.5 199 L
S
GR
GS
0.873 GC
1 LJ
0.5 LW
N
1153 153.5 M
165.5 153.5 L
S
GR
GS
0.873 GC
1 LJ
0.5 LW
N
1153 108 M
165.5 108 L
S
GR
GS
0.873 GC
1 LJ
0.5 LW
N
1153 62.5 M
165.5 62.5 L
S
GR
GS
0.873 GC
1 LJ
0.5 LW
N
1153 17 M
165.5 17 L
S
GR
GS
0.149 GC
2 setlinecap
1 LJ
0.5 LW
N
165.5 199 M
1153 199 L
S
GR
GS
0.149 GC
2 setlinecap
1 LJ
0.5 LW
N
165.5 17 M
1153 17 L
S
GR
GS
0.149 GC
2 setlinecap
1 LJ
0.5 LW
N
165.5 199 M
165.5 189.125 L
S
GR
GS
0.149 GC
2 setlinecap
1 LJ
0.5 LW
N
659.25 199 M
659.25 189.125 L
S
GR
GS
0.149 GC
2 setlinecap
1 LJ
0.5 LW
N
1153 199 M
1153 189.125 L
S
GR
GS
0.149 GC
2 setlinecap
1 LJ
0.5 LW
N
165.5 17 M
165.5 26.875 L
S
GR
GS
0.149 GC
2 setlinecap
1 LJ
0.5 LW
N
659.25 17 M
659.25 26.875 L
S
GR
GS
0.149 GC
2 setlinecap
1 LJ
0.5 LW
N
1153 17 M
1153 26.875 L
S
GR
GS
[1 0 0 1 165.5 205] CT
0.149 GC
/Helvetica 20 F
GS
[1 0 0 1 0 0] CT
-6 20 moveto 
1 -1 scale
(1) t 
GR
GR
GS
[1 0 0 1 659.25 205] CT
0.149 GC
/Helvetica 20 F
GS
[1 0 0 1 0 0] CT
-6 20 moveto 
1 -1 scale
(2) t 
GR
GR
GS
[1 0 0 1 1153 205] CT
0.149 GC
/Helvetica 20 F
GS
[1 0 0 1 0 0] CT
-6 20 moveto 
1 -1 scale
(3) t 
GR
GR
GS
0.149 GC
2 setlinecap
1 LJ
0.5 LW
N
165.5 199 M
165.5 17 L
S
GR
GS
0.149 GC
2 setlinecap
1 LJ
0.5 LW
N
1153 199 M
1153 17 L
S
GR
GS
0.149 GC
2 setlinecap
1 LJ
0.5 LW
N
165.5 199 M
175.375 199 L
S
GR
GS
0.149 GC
2 setlinecap
1 LJ
0.5 LW
N
165.5 153.5 M
175.375 153.5 L
S
GR
GS
0.149 GC
2 setlinecap
1 LJ
0.5 LW
N
165.5 108 M
175.375 108 L
S
GR
GS
0.149 GC
2 setlinecap
1 LJ
0.5 LW
N
165.5 62.5 M
175.375 62.5 L
S
GR
GS
0.149 GC
2 setlinecap
1 LJ
0.5 LW
N
165.5 17 M
175.375 17 L
S
GR
GS
0.149 GC
2 setlinecap
1 LJ
0.5 LW
N
1153 199 M
1143.125 199 L
S
GR
GS
0.149 GC
2 setlinecap
1 LJ
0.5 LW
N
1153 153.5 M
1143.125 153.5 L
S
GR
GS
0.149 GC
2 setlinecap
1 LJ
0.5 LW
N
1153 108 M
1143.125 108 L
S
GR
GS
0.149 GC
2 setlinecap
1 LJ
0.5 LW
N
1153 62.5 M
1143.125 62.5 L
S
GR
GS
0.149 GC
2 setlinecap
1 LJ
0.5 LW
N
1153 17 M
1143.125 17 L
S
GR
GS
[1 0 0 1 159.5 199] CT
0.149 GC
/Helvetica 20 F
GS
[1 0 0 1 0 0] CT
-23 7.5 moveto 
1 -1 scale
(10) t 
GR
GR
GS
[1 0 0 1 159.5 153.5] CT
0.149 GC
/Helvetica 20 F
GS
[1 0 0 1 0 0] CT
-23 7.5 moveto 
1 -1 scale
(15) t 
GR
GR
GS
[1 0 0 1 159.5 108] CT
0.149 GC
/Helvetica 20 F
GS
[1 0 0 1 0 0] CT
-23 7.5 moveto 
1 -1 scale
(20) t 
GR
GR
GS
[1 0 0 1 159.5 62.5] CT
0.149 GC
/Helvetica 20 F
GS
[1 0 0 1 0 0] CT
-23 7.5 moveto 
1 -1 scale
(25) t 
GR
GR
GS
[1 0 0 1 159.5 17] CT
0.149 GC
/Helvetica 20 F
GS
[1 0 0 1 0 0] CT
-23 7.5 moveto 
1 -1 scale
(30) t 
GR
GR
GS
[0 -1 1 0 134 107.99992] CT
0.149 GC
/Helvetica 22 F
GS
[1 0 0 1 0 0] CT
-38.5 -5 moveto 
1 -1 scale
(% Error) t 
GR
GR
GS
0 0.447 0.741 RC
1 LJ
2 LW
N
165.5 180.8 M
659.25 187.625 L
1153 187.17 L
S
GR
GS
0.851 0.325 0.098 RC
1 LJ
2 LW
N
165.5 24.098 M
659.25 143.272 L
1153 171.718 L
S
GR
GS
0.929 0.694 0.125 RC
1 LJ
2 LW
N
165.5 81.719 M
659.25 160.798 L
1153 181.128 L
S
GR
GS
0.494 0.184 0.557 RC
1 LJ
2 LW
N
165.5 67.305 M
659.25 156.649 L
1153 179.526 L
S
GR
GS
0.467 0.675 0.188 RC
1 LJ
2 LW
N
165.5 188.262 M
659.25 189.281 L
1153 188.244 L
S
GR
GS
1 GC
N
1137 51.5 M
1137 26 L
383.5 26 L
383.5 51.5 L
cp
f
GR
GS
[1 0 0 1 420.5 38.75] CT
/Helvetica 18 F
GS
[1 0 0 1 0 0] CT
0 7 moveto 
1 -1 scale
(Av. Accuracy) t 
GR
GR
GS
0 0.447 0.741 RC
1 LJ
2 LW
N
387.5 38.75 M
417.5 38.75 L
S
GR
GS
[1 0 0 1 568 38.75] CT
/Helvetica 18 F
GS
[1 0 0 1 0 0] CT
0 7 moveto 
1 -1 scale
(XGBoost) t 
GR
GR
GS
0.851 0.325 0.098 RC
1 LJ
2 LW
N
535 38.75 M
565 38.75 L
S
GR
GS
[1 0 0 1 681.5 38.75] CT
/Helvetica 18 F
GS
[1 0 0 1 0 0] CT
0 7 moveto 
1 -1 scale
(Random Forest) t 
GR
GR
GS
0.929 0.694 0.125 RC
1 LJ
2 LW
N
648.5 38.75 M
678.5 38.75 L
S
GR
GS
[1 0 0 1 847 38.75] CT
/Helvetica 18 F
GS
[1 0 0 1 0 0] CT
0 7 moveto 
1 -1 scale
(ExtraTrees) t 
GR
GR
GS
0.494 0.184 0.557 RC
1 LJ
2 LW
N
814 38.75 M
844 38.75 L
S
GR
GS
[1 0 0 1 974.5 38.75] CT
/Helvetica 18 F
GS
[1 0 0 1 0 0] CT
0 7 moveto 
1 -1 scale
(Logistic Regression) t 
GR
GR
GS
0.467 0.675 0.188 RC
1 LJ
2 LW
N
941.5 38.75 M
971.5 38.75 L
S
GR
GS
0.149 GC
10.0 ML
0.5 LW
N
383.5 51.5 M
383.5 26 L
1137 26 L
1137 51.5 L
cp
S
GR
%%Trailer
%%Pages: 1
%%EOF
